<svg xmlns="http://www.w3.org/2000/svg" width="30" height="31" viewBox="0 0 30 31">
    <g fill="none" fill-rule="evenodd">
        <path fill="#CACBCC" d="M14.994 30.07c8.28 0 14.993-6.732 14.993-15.035C29.987 6.73 23.274 0 14.994 0 6.713 0 0 6.731 0 15.035c0 8.303 6.713 15.034 14.994 15.034z"/>
        <path fill="#444" d="M18.314 9.496h-1.326c-1.04 0-1.24.528-1.24 1.301v1.707h2.479l-.323 2.673h-2.157v6.858h-2.585v-6.858H11v-2.673h2.162v-1.97C13.162 8.244 14.47 7 16.382 7c.915 0 1.702.072 1.932.105v2.39z"/>
    </g>
</svg>
