<svg xmlns="http://www.w3.org/2000/svg" xmlns:xlink="http://www.w3.org/1999/xlink" width="24" height="24" viewBox="0 0 24 24">
    <defs>
        <path id="a" d="M7.81 7.663a.69.69 0 0 0 .688-.688v-.929h6.293v.929a.69.69 0 0 0 1.377 0v-.929h2.693v3.058H4.377V6.046h2.745v.929a.69.69 0 0 0 .688.688zM4.377 20.53h14.484V10.481H4.377V20.53zM19.408 4.67h-3.24v-.982a.69.69 0 0 0-1.377 0v.982H8.498v-.982a.69.69 0 0 0-1.376 0v.982H3.83a.83.83 0 0 0-.83.829v15.578c0 .458.373.83.83.83h15.578a.83.83 0 0 0 .83-.83V5.499a.83.83 0 0 0-.83-.829z"/>
    </defs>
    <g fill="none" fill-rule="evenodd">
        <mask id="b" fill="#fff">
            <use xlink:href="#a"/>
        </mask>
        <use fill="#000" xlink:href="#a"/>
        <g fill="#868686" mask="url(#b)">
            <path d="M0 0h24v24H0V0z"/>
        </g>
    </g>
</svg>
