<svg xmlns="http://www.w3.org/2000/svg" xmlns:xlink="http://www.w3.org/1999/xlink" width="24" height="24" viewBox="0 0 24 24">
    <defs>
        <path id="a" d="M20.673 12c0 4.782-3.89 8.672-8.672 8.672S3.33 16.782 3.33 12 7.219 3.328 12 3.328s8.672 3.89 8.672 8.672M12.001 2c5.514 0 10 4.486 10 10s-4.486 10-10 10C6.486 22 2 17.514 2 12S6.486 2 12.001 2zm-.18 12.775l-4.228-2.498 4.228 5.958 4.23-5.958-4.23 2.498zm0-.8l4.228-2.5L11.82 4.46l-4.228 7.016 1.388.82 2.84 1.678z"/>
    </defs>
    <g fill="none" fill-rule="evenodd">
        <mask id="b" fill="#fff">
            <use xlink:href="#a"/>
        </mask>
        <use fill="#000" xlink:href="#a"/>
        <g fill="#fff" mask="url(#b)">
            <path d="M0 0h24v24H0V0z"/>
        </g>
    </g>
</svg>
